\relax 
\providecommand\hyper@newdestlabel[2]{}
\providecommand{\transparent@use}[1]{}
\catcode `"\active 
\providecommand\HyperFirstAtBeginDocument{\AtBeginDocument}
\HyperFirstAtBeginDocument{\ifx\hyper@anchor\@undefined
\global\let\oldcontentsline\contentsline
\gdef\contentsline#1#2#3#4{\oldcontentsline{#1}{#2}{#3}}
\global\let\oldnewlabel\newlabel
\gdef\newlabel#1#2{\newlabelxx{#1}#2}
\gdef\newlabelxx#1#2#3#4#5#6{\oldnewlabel{#1}{{#2}{#3}}}
\AtEndDocument{\ifx\hyper@anchor\@undefined
\let\contentsline\oldcontentsline
\let\newlabel\oldnewlabel
\fi}
\fi}
\global\let\hyper@last\relax 
\gdef\HyperFirstAtBeginDocument#1{#1}
\providecommand\HyField@AuxAddToFields[1]{}
\providecommand\HyField@AuxAddToCoFields[2]{}
\babel@aux{ngerman}{}
\citation{Greefrath}
\citation{Rossmanith}
\@writefile{toc}{\contentsline {section}{\numberline {1}Einleitung}{1}{section.1}\protected@file@percent }
\@writefile{toc}{\contentsline {subsection}{\numberline {1.1}Simulationen}{1}{subsection.1.1}\protected@file@percent }
\@writefile{toc}{\contentsline {subsection}{\numberline {1.2}Simulated Annealing}{2}{subsection.1.2}\protected@file@percent }
\@writefile{toc}{\contentsline {subsection}{\numberline {1.3}Algorithmus}{2}{subsection.1.3}\protected@file@percent }
\newlabel{Algorithmus}{{1.3}{2}{Algorithmus}{subsection.1.3}{}}
\newlabel{Algorithmus@cref}{{[subsection][3][1]1.3}{[1][2][]2}}
\@writefile{toc}{\contentsline {subsection}{\numberline {1.4}Das Ising-Modell}{3}{subsection.1.4}\protected@file@percent }
\newlabel{H-Funk}{{1.1}{3}{Das Ising-Modell}{equation.1.1}{}}
\newlabel{H-Funk@cref}{{[equation][1][1]1.1}{[1][3][]3}}
\@writefile{toc}{\contentsline {section}{\numberline {2}Modellierung}{4}{section.2}\protected@file@percent }
\@writefile{toc}{\contentsline {subsection}{\numberline {2.1}Nachbarschaft}{4}{subsection.2.1}\protected@file@percent }
\@writefile{toc}{\contentsline {subsection}{\numberline {2.2}Temperatur und Akzeptanzwahrscheinlichkeit}{5}{subsection.2.2}\protected@file@percent }
\newlabel{Akzeptanzwahrscheinlichkeit}{{2.1}{6}{Temperatur und Akzeptanzwahrscheinlichkeit}{equation.2.1}{}}
\newlabel{Akzeptanzwahrscheinlichkeit@cref}{{[equation][1][2]2.1}{[1][6][]6}}
\newlabel{Cooling}{{2.2}{6}{Temperatur und Akzeptanzwahrscheinlichkeit}{equation.2.2}{}}
\newlabel{Cooling@cref}{{[equation][2][2]2.2}{[1][6][]6}}
\@writefile{toc}{\contentsline {section}{\numberline {3}Validierung}{7}{section.3}\protected@file@percent }
\bibstyle{plaindin}
\bibdata{SimLiteratur}
